IS415-GAA - Hands-on Exercise 1
…
Usage: primary purpose is to read tabular data from CSV (Comma-Separated Values) files. CSV files are a common format for storing tabular data, and they can be used for both spatial and non-spatial datasets.

Things to note: When providing the path here, include the filename and the file extension.

listings <- read_csv("../../data/Week1/aspatial/listings.csv")

list() of base R

Usage: is a base R function used to create a list object. Lists in R can contain elements of different types, such as vectors, data frames, functions, or even other lists. It is a fundamental data structure in R for organizing and storing heterogeneous data.

list(listings) 

[[1]]
# A tibble: 3,457 × 18
       id name      host_id host_name neighbourhood_group neighbourhood latitude
    <dbl> <chr>       <dbl> <chr>     <chr>               <chr>            <dbl>
 1  71609 Villa in…  367042 Belinda   East Region         Tampines          1.35
 2  71896 Home in …  367042 Belinda   East Region         Tampines          1.35
 3  71903 Home in …  367042 Belinda   East Region         Tampines          1.35
 4 275343 Rental u… 1439258 Kay       Central Region      Bukit Merah       1.29
 5 275344 Rental u… 1439258 Kay       Central Region      Bukit Merah       1.29
 6 289234 Home in …  367042 Belinda   East Region         Tampines          1.34
 7 294281 Rental u… 1521514 Elizabeth Central Region      Newton            1.31
 8 324945 Rental u… 1439258 Kay       Central Region      Bukit Merah       1.29
 9 330095 Rental u… 1439258 Kay       Central Region      Bukit Merah       1.29
10 369141 Place to… 1521514 Elizabeth Central Region      Newton            1.31
# ℹ 3,447 more rows
# ℹ 11 more variables: longitude <dbl>, room_type <chr>, price <dbl>,
#   minimum_nights <dbl>, number_of_reviews <dbl>, last_review <date>,
#   reviews_per_month <dbl>, calculated_host_listings_count <dbl>,
#   availability_365 <dbl>, number_of_reviews_ltm <dbl>, license <chr>
…
